1	1	0.000000
2	1	0.000000
3	2	0.000000
4	3	0.000000
5	5	0.000000
6	8	0.000000
7	13	0.000000
8	21	0.000000
9	34	0.000000
10	55	0.000000
11	89	0.000000
12	144	0.000000
13	233	0.000000
14	377	0.000000
15	610	0.000000
16	987	0.001000
17	1597	0.000000
18	2584	0.000000
19	4181	0.000000
20	6765	0.001000
21	10946	0.000000
22	17711	0.002000
23	28657	0.001000
24	46368	0.003000
25	75025	0.005000
26	121393	0.007000
27	196418	0.012000
28	317811	0.019000
29	514229	0.033000
30	832040	0.053000
31	1346269	0.096000
32	2178309	0.130000
33	3524578	0.215000
34	5702887	0.343000
35	9227465	0.585000
36	14930352	0.929000
37	24157817	1.442000
38	39088169	2.372000
39	63245986	4.021000
40	102334155	6.211000
